15.0,31.0
31.0,31.0
16.0,31.0
31.0,32.0
16.0,31.0
31.0,31.0
31.0,16.0
16.0,31.0
31.0,47.0
16.0,15.0
31.0,32.0
31.0,31.0
16.0,31.0
31.0,31.0
16.0,32.0
31.0,31.0
31.0,31.0
16.0,31.0
31.0,32.0
31.0,31.0
32.0,31.0
15.0,31.0
31.0,32.0
16.0,31.0
31.0,31.0
16.0,31.0
31.0,32.0
16.0,31.0
31.0,47.0
31.0,31.0

Average
24,31
Paired ttest = -4.001405651543335
p-val = 3.98539741672933E-4