3.0,2.0
2.0,1.0
2.0,2.0
2.0,1.0
2.0,3.0
2.0,1.0
1.0,2.0
1.0,1.0
3.0,2.0
2.0,2.0
1.0,1.0
1.0,2.0
2.0,1.0
2.0,1.0
2.0,2.0
2.0,2.0
2.0,2.0
2.0,1.0
1.0,1.0
2.0,1.0
2.0,3.0
1.0,2.0
2.0,2.0
2.0,2.0
2.0,3.0
2.0,4.0
2.0,2.0
2.0,2.0
2.0,3.0
2.0,2.0

Average
1,1
Paired ttest = 0.0
p-val = 1.0