4.0,2.0
3.0,3.0
4.0,3.0
3.0,3.0
3.0,4.0
3.0,4.0
4.0,4.0
3.0,3.0
2.0,4.0
3.0,3.0
2.0,2.0
3.0,4.0
2.0,2.0
3.0,3.0
2.0,2.0
2.0,3.0
3.0,2.0
2.0,3.0
2.0,3.0
3.0,2.0
3.0,3.0
2.0,3.0
3.0,2.0
2.0,2.0
3.0,2.0
3.0,3.0
2.0,2.0
2.0,3.0
3.0,2.0
2.0,2.0

Average
2,2
Paired ttest = -0.4205107231601625
p-val = 0.6772121934492519