4.0,1.0
2.0,2.0
4.0,2.0
2.0,1.0
3.0,4.0
3.0,3.0
3.0,2.0
2.0,7.0
2.0,3.0
2.0,2.0
2.0,3.0
3.0,2.0
2.0,2.0
2.0,3.0
3.0,2.0
1.0,3.0
1.0,1.0
3.0,3.0
2.0,2.0
2.0,2.0
2.0,4.0
2.0,2.0
2.0,3.0
2.0,4.0
2.0,9.0
3.0,3.0
2.0,2.0
3.0,2.0
2.0,2.0
2.0,2.0

Average
2,2
Paired ttest = -1.2571626453251912
p-val = 0.21872570074377184