2.0,3.0
1.0,2.0
4.0,2.0
3.0,4.0
3.0,2.0
5.0,2.0
3.0,3.0
2.0,3.0
3.0,2.0
2.0,3.0
3.0,3.0
2.0,2.0
3.0,3.0
2.0,3.0
2.0,2.0
3.0,3.0
2.0,4.0
2.0,2.0
3.0,3.0
2.0,2.0
3.0,3.0
2.0,2.0
3.0,3.0
4.0,2.0
3.0,2.0
3.0,1.0
3.0,3.0
2.0,2.0
3.0,3.0
3.0,3.0

Average
2,2
Paired ttest = 0.679817177204512
p-val = 0.5020112715558043