4.0,4.0
5.0,4.0
3.0,3.0
3.0,3.0
4.0,3.0
2.0,3.0
4.0,3.0
3.0,3.0
4.0,3.0
3.0,3.0
3.0,3.0
3.0,3.0
3.0,2.0
4.0,3.0
2.0,3.0
2.0,3.0
3.0,4.0
2.0,3.0
2.0,7.0
4.0,4.0
2.0,3.0
3.0,3.0
3.0,4.0
3.0,4.0
3.0,3.0
3.0,3.0
4.0,3.0
3.0,3.0
3.0,4.0
2.0,4.0

Average
3,3
Paired ttest = -1.3605380662764393
p-val = 0.18414134229197232