<feature_model name="">
<meta>
<data name="description"></data>
<data name="creator"></data>
<data name="email"></data>
<data name="date"></data>
<data name="department"></data>
<data name="organization"></data>
<data name="address"></data>
<data name="phone"></data>
<data name="website"></data>
<data name="reference"></data>
</meta><feature_tree>
:r root (root)
	:o F1 (F1)
		:o F6 (F6)
			:o F15 (F15)
			:m F16 (F16)
			:o F17 (F17)
		:m F7 (F7)
		:o F8 (F8)
		:o F9 (F9)
		:g [1,*]
			: F10 (F10)
				:g [1,1]
					: F18 (F18)
					: F19 (F19)
			: F11 (F11)
			: F12 (F12)
		:g [1,1]
			: F13 (F13)
			: F14 (F14)
	:g [1,*]
		: F2 (F2)
		: F3 (F3)
		: F4 (F4)
		: F5 (F5)
</feature_tree>
<constraints>
R-13: ~F14 or ~F17
R-14: ~F16 or F11
R-15: ~F11 or ~F4
R-16: ~F6 or ~F10
R-17: ~F2 or ~F10
</constraints>
</feature_model>