<feature_model name="">
<meta>
<data name="description"></data>
<data name="creator"></data>
<data name="email"></data>
<data name="date"></data>
<data name="department"></data>
<data name="organization"></data>
<data name="address"></data>
<data name="phone"></data>
<data name="website"></data>
<data name="reference"></data>
</meta><feature_tree>
:r root (root)
	:o F1 (F1)
	:m F2 (F2)
	:g [1,*]
		: F3 (F3)
			:m F19 (F19)
		: F4 (F4)
		: F5 (F5)
	:g [1,1]
		: F6 (F6)
			:m F8 (F8)
				:m F12 (F12)
				:m F13 (F13)
				:o F14 (F14)
				:g [1,*]
					: F15 (F15)
					: F16 (F16)
						:m F18 (F18)
					: F17 (F17)
			:m F9 (F9)
			:g [1,1]
				: F10 (F10)
				: F11 (F11)
		: F7 (F7)
</feature_tree>
<constraints>
R-14: ~F5 or F4
</constraints>
</feature_model>