Operation;runNumber;tcNumber;pval;ttestval;avg. time fm;avg. time fmu;verdict;normality
CoreFeaturesPerfMTest;0;0;1;0;0;0;PASS;true
CoreFeaturesPerfMTest;0;1;1;0;0;0;PASS;true
CoreFeaturesPerfMTest;0;2;1;0;0;0;PASS;true
CoreFeaturesPerfMTest;0;3;0,031;-2,262;0;1;PASS;true
CoreFeaturesPerfMTest;0;4;0,69;-0,403;0;0;PASS;true
CoreFeaturesPerfMTest;0;5;0,202;-1,306;0;0;PASS;true
CoreFeaturesPerfMTest;0;6;0,662;0,441;0;0;PASS;true
CoreFeaturesPerfMTest;0;7;0,55;-0,604;1;1;PASS;true
CoreFeaturesPerfMTest;0;8;0,056;1,989;0;0;PASS;true
CoreFeaturesPerfMTest;1;0;0,831;-0,215;0;0;PASS;true
CoreFeaturesPerfMTest;1;1;0,489;0,701;0;0;PASS;true
CoreFeaturesPerfMTest;1;2;0,03;-2,283;0;0;PASS;true
CoreFeaturesPerfMTest;1;3;0,109;-1,651;0;0;PASS;true
CoreFeaturesPerfMTest;1;4;1;0;0;0;PASS;true
CoreFeaturesPerfMTest;1;5;0,071;1,874;0;0;PASS;true
CoreFeaturesPerfMTest;1;6;0,143;-1,505;0;1;PASS;true
CoreFeaturesPerfMTest;1;7;0,199;1,316;1;0;PASS;true
CoreFeaturesPerfMTest;1;8;0,211;1,278;0;0;PASS;true
CoreFeaturesPerfMTest;2;0;0,851;-0,189;0;0;PASS;true
CoreFeaturesPerfMTest;2;1;0,415;0,828;0;0;PASS;true
CoreFeaturesPerfMTest;2;2;0,184;-1,361;0;0;PASS;true
CoreFeaturesPerfMTest;2;3;0,69;0,403;0;0;PASS;true
CoreFeaturesPerfMTest;2;4;0,769;0,297;0;0;PASS;true
CoreFeaturesPerfMTest;2;5;0;-4,289;0;1;PASS;true
CoreFeaturesPerfMTest;2;6;0,06;-1,957;0;1;PASS;true
CoreFeaturesPerfMTest;2;7;0,206;1,293;0;0;PASS;true
CoreFeaturesPerfMTest;2;8;0,039;2,163;0;0;FAIL;true
CoreFeaturesPerfMTest;3;0;0,839;-0,205;0;0;PASS;true
CoreFeaturesPerfMTest;3;1;0,801;-0,254;0;0;PASS;true
CoreFeaturesPerfMTest;3;2;0,69;0,403;0;0;PASS;true
CoreFeaturesPerfMTest;3;3;0,573;0,571;0;0;PASS;true
CoreFeaturesPerfMTest;3;4;0,873;0,162;0;0;PASS;true
CoreFeaturesPerfMTest;3;5;0,415;0,828;0;0;PASS;true
CoreFeaturesPerfMTest;3;6;0,69;0,403;0;0;PASS;true
CoreFeaturesPerfMTest;3;7;0,048;2,068;0;0;FAIL;true
CoreFeaturesPerfMTest;3;8;0,823;0,226;0;0;PASS;true
CoreFeaturesPerfMTest;4;0;1;0;0;0;PASS;true
CoreFeaturesPerfMTest;4;1;0,573;0,571;0;0;PASS;true
CoreFeaturesPerfMTest;4;2;0,536;0,626;0;0;PASS;true
CoreFeaturesPerfMTest;4;3;0,69;-0,403;0;0;PASS;true
CoreFeaturesPerfMTest;4;4;0,217;1,262;1;0;PASS;true
CoreFeaturesPerfMTest;4;5;0,058;-1,975;0;0;PASS;true
CoreFeaturesPerfMTest;4;6;1;0;0;0;PASS;true
CoreFeaturesPerfMTest;4;7;0,231;1,223;0;0;PASS;true
CoreFeaturesPerfMTest;4;8;0,003;-3,209;0;1;PASS;true
CoreFeaturesPerfMTest;5;0;0,839;-0,205;0;0;PASS;true
CoreFeaturesPerfMTest;5;1;1;0;0;0;PASS;true
CoreFeaturesPerfMTest;5;2;0,501;-0,682;0;0;PASS;true
CoreFeaturesPerfMTest;5;3;1;0;0;0;PASS;true
CoreFeaturesPerfMTest;5;4;0,769;-0,297;0;0;PASS;true
CoreFeaturesPerfMTest;5;5;1;0;0;0;PASS;true
CoreFeaturesPerfMTest;5;6;0,448;0,769;0;0;PASS;true
CoreFeaturesPerfMTest;5;7;0,385;-0,881;0;0;PASS;true
CoreFeaturesPerfMTest;5;8;1;0;0;0;PASS;true
CoreFeaturesPerfMTest;6;0;0,38;0,891;0;0;PASS;true
CoreFeaturesPerfMTest;6;1;1;0;0;0;PASS;true
CoreFeaturesPerfMTest;6;2;1;0;0;0;PASS;true
CoreFeaturesPerfMTest;6;3;0,025;-2,362;0;0;PASS;true
CoreFeaturesPerfMTest;6;4;0,107;-1,663;0;0;PASS;true
CoreFeaturesPerfMTest;6;5;0,645;-0,465;0;0;PASS;true
CoreFeaturesPerfMTest;6;6;1;0;0;0;PASS;true
CoreFeaturesPerfMTest;6;7;0,501;0,682;0;0;PASS;true
CoreFeaturesPerfMTest;6;8;0,083;1,795;1;0;PASS;true
CoreFeaturesPerfMTest;7;0;0,586;-0,551;0;0;PASS;true
CoreFeaturesPerfMTest;7;1;0,769;0,297;0;0;PASS;true
CoreFeaturesPerfMTest;7;2;1;0;0;0;PASS;true
CoreFeaturesPerfMTest;7;3;0,088;-1,765;0;0;PASS;true
CoreFeaturesPerfMTest;7;4;0,476;-0,722;0;0;PASS;true
CoreFeaturesPerfMTest;7;5;0,573;-0,571;0;0;PASS;true
CoreFeaturesPerfMTest;7;6;0,199;1,316;1;0;PASS;true
CoreFeaturesPerfMTest;7;7;0,086;1,775;1;0;PASS;true
CoreFeaturesPerfMTest;7;8;0,448;-0,769;0;0;PASS;true
CoreFeaturesPerfMTest;8;0;0,801;-0,254;0;0;PASS;true
CoreFeaturesPerfMTest;8;1;0,745;0,328;0;0;PASS;true
CoreFeaturesPerfMTest;8;2;0,625;-0,494;0;0;PASS;true
CoreFeaturesPerfMTest;8;3;0,823;-0,226;0;0;PASS;true
CoreFeaturesPerfMTest;8;4;0,839;0,205;0;0;PASS;true
CoreFeaturesPerfMTest;8;5;0,415;-0,828;0;0;PASS;true
CoreFeaturesPerfMTest;8;6;1;0;0;0;PASS;true
CoreFeaturesPerfMTest;8;7;0,083;1,795;0;0;PASS;true
CoreFeaturesPerfMTest;8;8;0,326;-1;1;1;PASS;true
CoreFeaturesPerfMTest;9;0;0,501;-0,682;0;0;PASS;true
CoreFeaturesPerfMTest;9;1;0,293;1,072;0;0;PASS;true
CoreFeaturesPerfMTest;9;2;0,255;-1,161;0;0;PASS;true
CoreFeaturesPerfMTest;9;3;0,083;-1,795;0;0;PASS;true
CoreFeaturesPerfMTest;9;4;0,769;0,297;0;0;PASS;true
CoreFeaturesPerfMTest;9;5;0,097;-1,718;0;1;PASS;true
CoreFeaturesPerfMTest;9;6;0,645;0,465;0;0;PASS;true
CoreFeaturesPerfMTest;9;7;0,536;0,626;0;0;PASS;true
CoreFeaturesPerfMTest;9;8;0,601;0,528;0;0;PASS;true
CoreFeaturesPerfMTest;10;0;0,255;-1,161;0;0;PASS;true
CoreFeaturesPerfMTest;10;1;0,645;-0,465;0;0;PASS;true
CoreFeaturesPerfMTest;10;2;0,564;-0,583;0;0;PASS;true
CoreFeaturesPerfMTest;10;3;0,645;-0,465;0;0;PASS;true
CoreFeaturesPerfMTest;10;4;0,601;-0,528;0;0;PASS;true
CoreFeaturesPerfMTest;10;5;0,501;-0,682;0;0;PASS;true
CoreFeaturesPerfMTest;10;6;0,823;0,226;0;0;PASS;true
CoreFeaturesPerfMTest;10;7;0,264;-1,14;0;0;PASS;true
CoreFeaturesPerfMTest;10;8;0,293;1,072;0;0;PASS;true
CoreFeaturesPerfMTest;11;0;0,258;-1,153;0;0;PASS;true
CoreFeaturesPerfMTest;11;1;1;0;0;0;PASS;true
CoreFeaturesPerfMTest;11;2;0,801;-0,254;0;0;PASS;true
CoreFeaturesPerfMTest;11;3;0,005;3,042;1;0;FAIL;true
CoreFeaturesPerfMTest;11;4;0,305;1,044;0;0;PASS;true
CoreFeaturesPerfMTest;11;5;0,573;-0,571;0;0;PASS;true
CoreFeaturesPerfMTest;11;6;0,448;-0,769;0;0;PASS;true
CoreFeaturesPerfMTest;11;7;1;0;0;0;PASS;true
CoreFeaturesPerfMTest;11;8;0,129;1,564;0;0;PASS;true
CoreFeaturesPerfMTest;12;0;0,326;-1;0;0;PASS;true
CoreFeaturesPerfMTest;12;1;0,601;-0,528;0;0;PASS;true
CoreFeaturesPerfMTest;12;2;0,813;-0,239;0;0;PASS;true
CoreFeaturesPerfMTest;12;3;0,326;-1;0;0;PASS;true
CoreFeaturesPerfMTest;12;4;0,801;-0,254;0;0;PASS;true
CoreFeaturesPerfMTest;12;5;0,769;0,297;0;0;PASS;true
CoreFeaturesPerfMTest;12;6;0,257;1,157;0;0;PASS;true
CoreFeaturesPerfMTest;12;7;1;0;0;0;PASS;true
CoreFeaturesPerfMTest;12;8;0,058;1,975;1;0;PASS;true
CoreFeaturesPerfMTest;13;0;0,039;-2,163;0;0;PASS;true
CoreFeaturesPerfMTest;13;1;0,769;-0,297;0;0;PASS;true
CoreFeaturesPerfMTest;13;2;0,745;0,328;0;0;PASS;true
CoreFeaturesPerfMTest;13;3;0,354;-0,942;0;0;PASS;true
CoreFeaturesPerfMTest;13;4;0,625;-0,494;0;0;PASS;true
CoreFeaturesPerfMTest;13;5;1;0;0;0;PASS;true
CoreFeaturesPerfMTest;13;6;0,403;0,849;0;0;PASS;true
CoreFeaturesPerfMTest;13;7;0,769;-0,297;0;0;PASS;true
CoreFeaturesPerfMTest;13;8;0,283;1,095;0;0;PASS;true
CoreFeaturesPerfMTest;14;0;0,448;0,769;0;0;PASS;true
CoreFeaturesPerfMTest;14;1;0,745;0,328;0;0;PASS;true
CoreFeaturesPerfMTest;14;2;0,258;-1,153;0;0;PASS;true
CoreFeaturesPerfMTest;14;3;0,876;0,158;0;0;PASS;true
CoreFeaturesPerfMTest;14;4;0,601;-0,528;0;0;PASS;true
CoreFeaturesPerfMTest;14;5;0,601;0,528;0;0;PASS;true
CoreFeaturesPerfMTest;14;6;1;0;0;0;PASS;true
CoreFeaturesPerfMTest;14;7;0,246;1,185;0;0;PASS;true
CoreFeaturesPerfMTest;14;8;0,791;0,268;1;0;PASS;true
CoreFeaturesPerfMTest;15;0;0,601;0,528;0;0;PASS;true
CoreFeaturesPerfMTest;15;1;0,712;0,372;0;0;PASS;true
CoreFeaturesPerfMTest;15;2;0,415;-0,828;0;0;PASS;true
CoreFeaturesPerfMTest;15;3;0,354;-0,941;0;0;PASS;true
CoreFeaturesPerfMTest;15;4;0,326;-1;0;0;PASS;true
CoreFeaturesPerfMTest;15;5;0,645;-0,465;0;0;PASS;true
CoreFeaturesPerfMTest;15;6;0,059;1,964;0;0;PASS;true
CoreFeaturesPerfMTest;15;7;0,601;0,528;0;0;PASS;true
CoreFeaturesPerfMTest;15;8;0,787;-0,273;0;0;PASS;true
CoreFeaturesPerfMTest;16;0;0,662;-0,441;0;0;PASS;true
CoreFeaturesPerfMTest;16;1;0,787;-0,273;0;0;PASS;true
CoreFeaturesPerfMTest;16;2;0,813;-0,239;0;0;PASS;true
CoreFeaturesPerfMTest;16;3;0,745;0,328;0;0;PASS;true
CoreFeaturesPerfMTest;16;4;0,601;0,528;0;0;PASS;true
CoreFeaturesPerfMTest;16;5;0,142;-1,511;0;0;PASS;true
CoreFeaturesPerfMTest;16;6;0,246;1,185;0;0;PASS;true
CoreFeaturesPerfMTest;16;7;0,283;1,095;0;0;PASS;true
CoreFeaturesPerfMTest;16;8;0,147;1,489;1;0;PASS;true
CoreFeaturesPerfMTest;17;0;0,305;1,044;0;0;PASS;true
CoreFeaturesPerfMTest;17;1;0,813;-0,239;0;0;PASS;true
CoreFeaturesPerfMTest;17;2;0,501;0,682;0;0;PASS;true
CoreFeaturesPerfMTest;17;3;0,448;-0,769;0;0;PASS;true
CoreFeaturesPerfMTest;17;4;0,556;0,595;1;1;PASS;true
CoreFeaturesPerfMTest;17;5;0,165;1,424;0;0;PASS;true
CoreFeaturesPerfMTest;17;6;0,873;-0,162;0;0;PASS;true
CoreFeaturesPerfMTest;17;7;0,037;2,192;0;0;FAIL;true
CoreFeaturesPerfMTest;17;8;0,086;1,775;1;0;PASS;true
CoreFeaturesPerfMTest;18;0;0,375;-0,902;0;0;PASS;true
CoreFeaturesPerfMTest;18;1;0,415;-0,828;0;0;PASS;true
CoreFeaturesPerfMTest;18;2;1;0;0;0;PASS;true
CoreFeaturesPerfMTest;18;3;0,787;-0,273;0;0;PASS;true
CoreFeaturesPerfMTest;18;4;0,448;0,769;0;0;PASS;true
CoreFeaturesPerfMTest;18;5;0,787;-0,273;0;0;PASS;true
CoreFeaturesPerfMTest;18;6;0,326;1;0;0;PASS;true
CoreFeaturesPerfMTest;18;7;0,677;0,421;0;0;PASS;true
CoreFeaturesPerfMTest;18;8;0,023;2,408;1;0;FAIL;true
CoreFeaturesPerfMTest;19;0;1;0;0;0;PASS;true
CoreFeaturesPerfMTest;19;1;0,769;0,297;0;0;PASS;true
CoreFeaturesPerfMTest;19;2;0,813;0,239;0;0;PASS;true
CoreFeaturesPerfMTest;19;3;0,38;-0,891;0;0;PASS;true
CoreFeaturesPerfMTest;19;4;0,258;-1,153;0;0;PASS;true
CoreFeaturesPerfMTest;19;5;0,015;-2,587;0;1;PASS;true
CoreFeaturesPerfMTest;19;6;0,522;-0,648;0;0;PASS;true
CoreFeaturesPerfMTest;19;7;0,016;2,562;0;0;FAIL;true
CoreFeaturesPerfMTest;19;8;0,153;1,469;1;0;PASS;true
CoreFeaturesPerfMTest;20;0;0,801;-0,254;0;0;PASS;true
CoreFeaturesPerfMTest;20;1;0,787;-0,273;0;0;PASS;true
CoreFeaturesPerfMTest;20;2;0,293;1,072;0;0;PASS;true
CoreFeaturesPerfMTest;20;3;0,255;-1,161;0;0;PASS;true
CoreFeaturesPerfMTest;20;4;0,662;-0,441;0;0;PASS;true
CoreFeaturesPerfMTest;20;5;1;0;1;1;PASS;true
CoreFeaturesPerfMTest;20;6;1;0;0;0;PASS;true
CoreFeaturesPerfMTest;20;7;0,11;1,649;0;0;PASS;true
CoreFeaturesPerfMTest;20;8;0,231;1,223;0;0;PASS;true
CoreFeaturesPerfMTest;21;0;0,856;-0,183;0;0;PASS;true
CoreFeaturesPerfMTest;21;1;0,326;-1;0;0;PASS;true
CoreFeaturesPerfMTest;21;2;0,078;-1,829;0;0;PASS;true
CoreFeaturesPerfMTest;21;3;0,801;0,254;0;0;PASS;true
CoreFeaturesPerfMTest;21;4;0,69;-0,403;0;0;PASS;true
CoreFeaturesPerfMTest;21;5;1;0;0;0;PASS;true
CoreFeaturesPerfMTest;21;6;0,801;-0,254;0;0;PASS;true
CoreFeaturesPerfMTest;21;7;1;0;0;0;PASS;true
CoreFeaturesPerfMTest;21;8;0,006;2,971;1;0;FAIL;true
CoreFeaturesPerfMTest;22;0;0,11;-1,649;0;0;PASS;true
CoreFeaturesPerfMTest;22;1;0,375;0,902;0;0;PASS;true
CoreFeaturesPerfMTest;22;2;0,211;-1,278;0;0;PASS;true
CoreFeaturesPerfMTest;22;3;0,524;-0,645;0;1;PASS;true
CoreFeaturesPerfMTest;22;4;0,094;-1,733;0;1;PASS;true
CoreFeaturesPerfMTest;22;5;1;0;0;0;PASS;true
CoreFeaturesPerfMTest;22;6;0,902;-0,124;1;1;PASS;true
CoreFeaturesPerfMTest;22;7;0,003;3,247;1;0;FAIL;true
CoreFeaturesPerfMTest;22;8;0,662;0,441;1;1;PASS;true
CoreFeaturesPerfMTest;23;0;0,69;-0,403;0;0;PASS;true
CoreFeaturesPerfMTest;23;1;0,297;-1,063;0;0;PASS;true
CoreFeaturesPerfMTest;23;2;0,645;0,465;0;0;PASS;true
CoreFeaturesPerfMTest;23;3;1;0;0;0;PASS;true
CoreFeaturesPerfMTest;23;4;0,522;-0,648;0;0;PASS;true
CoreFeaturesPerfMTest;23;5;0,787;-0,273;0;0;PASS;true
CoreFeaturesPerfMTest;23;6;0,645;0,465;0;0;PASS;true
CoreFeaturesPerfMTest;23;7;0,601;0,528;0;0;PASS;true
CoreFeaturesPerfMTest;23;8;0,326;1;1;0;PASS;true
CoreFeaturesPerfMTest;24;0;0,227;1,235;0;0;PASS;true
CoreFeaturesPerfMTest;24;1;0,573;0,571;0;0;PASS;true
CoreFeaturesPerfMTest;24;2;1;0;0;0;PASS;true
CoreFeaturesPerfMTest;24;3;0,118;-1,61;0;0;PASS;true
CoreFeaturesPerfMTest;24;4;0,801;0,254;0;0;PASS;true
CoreFeaturesPerfMTest;24;5;0,541;-0,619;0;0;PASS;true
CoreFeaturesPerfMTest;24;6;0,103;-1,682;0;0;PASS;true
CoreFeaturesPerfMTest;24;7;0,283;1,095;0;0;PASS;true
CoreFeaturesPerfMTest;24;8;0,07;-1,882;0;0;PASS;true
CoreFeaturesPerfMTest;25;0;0,536;-0,626;0;0;PASS;true
CoreFeaturesPerfMTest;25;1;0,787;0,273;0;0;PASS;true
CoreFeaturesPerfMTest;25;2;0,293;-1,072;0;0;PASS;true
CoreFeaturesPerfMTest;25;3;0,448;-0,769;0;0;PASS;true
CoreFeaturesPerfMTest;25;4;1;0;0;0;PASS;true
CoreFeaturesPerfMTest;25;5;0,161;1,439;0;0;PASS;true
CoreFeaturesPerfMTest;25;6;1;0;0;0;PASS;true
CoreFeaturesPerfMTest;25;7;0,698;-0,392;1;1;PASS;true
CoreFeaturesPerfMTest;25;8;0,769;-0,297;0;0;PASS;true
CoreFeaturesPerfMTest;26;0;0,769;-0,297;0;0;PASS;true
CoreFeaturesPerfMTest;26;1;0,769;-0,297;0;0;PASS;true
CoreFeaturesPerfMTest;26;2;0,813;-0,239;0;0;PASS;true
CoreFeaturesPerfMTest;26;3;1;0;0;0;PASS;true
CoreFeaturesPerfMTest;26;4;0,522;-0,648;0;0;PASS;true
CoreFeaturesPerfMTest;26;5;0,601;-0,528;0;0;PASS;true
CoreFeaturesPerfMTest;26;6;0,393;0,867;0;0;PASS;true
CoreFeaturesPerfMTest;26;7;0,423;-0,812;0;1;PASS;true
CoreFeaturesPerfMTest;26;8;0,147;-1,49;0;1;PASS;true
CoreFeaturesPerfMTest;27;0;0,211;-1,278;0;0;PASS;true
CoreFeaturesPerfMTest;27;1;0,801;0,254;0;0;PASS;true
CoreFeaturesPerfMTest;27;2;0,823;-0,226;0;0;PASS;true
CoreFeaturesPerfMTest;27;3;0,326;-1;0;0;PASS;true
CoreFeaturesPerfMTest;27;4;0,476;-0,722;0;0;PASS;true
CoreFeaturesPerfMTest;27;5;0,375;0,902;0;0;PASS;true
CoreFeaturesPerfMTest;27;6;1;0;0;0;PASS;true
CoreFeaturesPerfMTest;27;7;1;0;0;0;PASS;true
CoreFeaturesPerfMTest;27;8;0,007;-2,915;1;2;PASS;true
CoreFeaturesPerfMTest;28;0;0,293;-1,072;0;0;PASS;true
CoreFeaturesPerfMTest;28;1;0,823;0,226;0;0;PASS;true
CoreFeaturesPerfMTest;28;2;0,787;-0,273;0;0;PASS;true
CoreFeaturesPerfMTest;28;3;0,109;-1,651;0;0;PASS;true
CoreFeaturesPerfMTest;28;4;0,476;-0,722;0;0;PASS;true
CoreFeaturesPerfMTest;28;5;0,601;-0,528;0;0;PASS;true
CoreFeaturesPerfMTest;28;6;0,025;-2,362;0;1;PASS;true
CoreFeaturesPerfMTest;28;7;1;0;0;0;PASS;true
CoreFeaturesPerfMTest;28;8;0,184;-1,361;0;0;PASS;true
CoreFeaturesPerfMTest;29;0;1;0;0;0;PASS;true
CoreFeaturesPerfMTest;29;1;0,326;1;0;0;PASS;true
CoreFeaturesPerfMTest;29;2;0,536;-0,626;0;0;PASS;true
CoreFeaturesPerfMTest;29;3;0,831;-0,215;0;0;PASS;true
CoreFeaturesPerfMTest;29;4;0,769;0,297;0;0;PASS;true
CoreFeaturesPerfMTest;29;5;0,579;0,561;1;1;PASS;true
CoreFeaturesPerfMTest;29;6;0,645;0,465;0;0;PASS;true
CoreFeaturesPerfMTest;29;7;0,161;-1,439;0;1;PASS;true
CoreFeaturesPerfMTest;29;8;0,032;2,249;1;0;FAIL;true

percFlaky;0,333
percStatisticalSign;0,067