Operation;runNumber;tcNumber;pval;ttestval;avg. time fm;avg. time fmu;verdict;normality
Sampling_ICPL_PerfMTest;0;0;0,352;-0,945;31;33;PASS;true
Sampling_ICPL_PerfMTest;0;1;0;-5,583;34;43;PASS;true
Sampling_ICPL_PerfMTest;0;2;0;-6,566;34;42;PASS;true
Sampling_ICPL_PerfMTest;0;3;0,299;-1,057;57;60;PASS;false
Sampling_ICPL_PerfMTest;0;4;0,317;-1,018;54;57;PASS;true
Sampling_ICPL_PerfMTest;0;5;0,227;1,236;60;58;PASS;false
Sampling_ICPL_PerfMTest;0;6;0;-4,15;61;70;PASS;false
Sampling_ICPL_PerfMTest;0;7;0,355;0,939;73;71;PASS;false
Sampling_ICPL_PerfMTest;0;8;0,094;1,73;86;82;PASS;false
Sampling_ICPL_PerfMTest;1;0;0;-4,275;24;28;PASS;true
Sampling_ICPL_PerfMTest;1;1;0;-6,232;29;35;PASS;false
Sampling_ICPL_PerfMTest;1;2;0,056;-1,989;35;38;PASS;true
Sampling_ICPL_PerfMTest;1;3;0,004;3,1;51;46;FAIL;true
Sampling_ICPL_PerfMTest;1;4;0,12;-1,602;47;49;PASS;true
Sampling_ICPL_PerfMTest;1;5;0,563;-0,586;55;56;PASS;true
Sampling_ICPL_PerfMTest;1;6;0,054;-2,012;63;66;PASS;true
Sampling_ICPL_PerfMTest;1;7;0,226;-1,236;68;71;PASS;true
Sampling_ICPL_PerfMTest;1;8;0,028;-2,311;78;83;PASS;true
Sampling_ICPL_PerfMTest;2;0;0;-5,683;24;29;PASS;true
Sampling_ICPL_PerfMTest;2;1;0,007;-2,913;29;31;PASS;false
Sampling_ICPL_PerfMTest;2;2;0,382;-0,888;33;34;PASS;false
Sampling_ICPL_PerfMTest;2;3;0,907;-0,118;47;47;PASS;false
Sampling_ICPL_PerfMTest;2;4;0,004;-3,103;47;54;PASS;false
Sampling_ICPL_PerfMTest;2;5;0;-6,535;54;64;PASS;false
Sampling_ICPL_PerfMTest;2;6;0,002;-3,34;62;67;PASS;true
Sampling_ICPL_PerfMTest;2;7;0,003;3,256;75;67;FAIL;true
Sampling_ICPL_PerfMTest;2;8;0,214;-1,272;81;83;PASS;true
Sampling_ICPL_PerfMTest;3;0;0;-6,951;24;28;PASS;true
Sampling_ICPL_PerfMTest;3;1;0;-6,537;35;41;PASS;false
Sampling_ICPL_PerfMTest;3;2;0;4,296;45;37;FAIL;true
Sampling_ICPL_PerfMTest;3;3;0,007;-2,925;44;47;PASS;true
Sampling_ICPL_PerfMTest;3;4;0,038;-2,178;46;49;PASS;false
Sampling_ICPL_PerfMTest;3;5;0;-4,228;51;56;PASS;true
Sampling_ICPL_PerfMTest;3;6;0,519;-0,653;64;66;PASS;true
Sampling_ICPL_PerfMTest;3;7;0,396;0,862;70;68;PASS;true
Sampling_ICPL_PerfMTest;3;8;0,037;-2,188;77;80;PASS;true
Sampling_ICPL_PerfMTest;4;0;0;-5,53;23;30;PASS;false
Sampling_ICPL_PerfMTest;4;1;0,001;-3,848;29;31;PASS;false
Sampling_ICPL_PerfMTest;4;2;0,123;-1,587;32;34;PASS;false
Sampling_ICPL_PerfMTest;4;3;0,015;-2,58;44;49;PASS;true
Sampling_ICPL_PerfMTest;4;4;0;-6,328;43;49;PASS;false
Sampling_ICPL_PerfMTest;4;5;0,009;-2,803;56;61;PASS;true
Sampling_ICPL_PerfMTest;4;6;0,183;-1,364;64;68;PASS;true
Sampling_ICPL_PerfMTest;4;7;0,054;2,009;74;70;PASS;false
Sampling_ICPL_PerfMTest;4;8;0,011;-2,736;78;84;PASS;true
Sampling_ICPL_PerfMTest;5;0;0,004;-3,118;24;27;PASS;false
Sampling_ICPL_PerfMTest;5;1;0,008;-2,848;29;31;PASS;true
Sampling_ICPL_PerfMTest;5;2;0,001;-3,802;33;37;PASS;false
Sampling_ICPL_PerfMTest;5;3;0,283;1,094;47;45;PASS;true
Sampling_ICPL_PerfMTest;5;4;0,056;-1,992;45;49;PASS;true
Sampling_ICPL_PerfMTest;5;5;0,18;-1,374;55;57;PASS;true
Sampling_ICPL_PerfMTest;5;6;0,003;-3,303;61;68;PASS;false
Sampling_ICPL_PerfMTest;5;7;0,346;0,958;69;67;PASS;false
Sampling_ICPL_PerfMTest;5;8;0,009;2,783;89;80;FAIL;true
Sampling_ICPL_PerfMTest;6;0;0;-5,261;23;27;PASS;true
Sampling_ICPL_PerfMTest;6;1;0;-4,548;30;34;PASS;false
Sampling_ICPL_PerfMTest;6;2;0,07;-1,878;32;34;PASS;false
Sampling_ICPL_PerfMTest;6;3;0;-4,758;44;50;PASS;true
Sampling_ICPL_PerfMTest;6;4;0,191;1,338;54;51;PASS;true
Sampling_ICPL_PerfMTest;6;5;0,593;-0,54;54;55;PASS;true
Sampling_ICPL_PerfMTest;6;6;0,917;-0,106;63;63;PASS;true
Sampling_ICPL_PerfMTest;6;7;0,063;-1,934;67;70;PASS;true
Sampling_ICPL_PerfMTest;6;8;0,117;-1,614;84;89;PASS;true
Sampling_ICPL_PerfMTest;7;0;0;-4,136;28;31;PASS;true
Sampling_ICPL_PerfMTest;7;1;0,077;-1,834;36;38;PASS;false
Sampling_ICPL_PerfMTest;7;2;0,473;-0,727;37;37;PASS;true
Sampling_ICPL_PerfMTest;7;3;0,455;0,757;53;52;PASS;true
Sampling_ICPL_PerfMTest;7;4;0,278;-1,106;48;49;PASS;false
Sampling_ICPL_PerfMTest;7;5;0,152;1,471;65;62;PASS;false
Sampling_ICPL_PerfMTest;7;6;0;-4,569;69;79;PASS;false
Sampling_ICPL_PerfMTest;7;7;0,989;0,014;78;78;PASS;true
Sampling_ICPL_PerfMTest;7;8;0;4,685;89;80;FAIL;false
Sampling_ICPL_PerfMTest;8;0;0;-9,827;24;32;PASS;false
Sampling_ICPL_PerfMTest;8;1;0;-6,517;29;34;PASS;true
Sampling_ICPL_PerfMTest;8;2;0,002;-3,407;34;39;PASS;false
Sampling_ICPL_PerfMTest;8;3;0,649;0,459;47;47;PASS;true
Sampling_ICPL_PerfMTest;8;4;0,823;-0,226;50;51;PASS;false
Sampling_ICPL_PerfMTest;8;5;0,002;-3,37;55;60;PASS;true
Sampling_ICPL_PerfMTest;8;6;0,037;-2,185;72;78;PASS;true
Sampling_ICPL_PerfMTest;8;7;0,004;-3,083;80;87;PASS;true
Sampling_ICPL_PerfMTest;8;8;0;-4,793;98;112;PASS;true
Sampling_ICPL_PerfMTest;9;0;0,001;-3,635;27;30;PASS;true
Sampling_ICPL_PerfMTest;9;1;0,001;-3,88;33;36;PASS;true
Sampling_ICPL_PerfMTest;9;2;0,012;-2,675;38;43;PASS;false
Sampling_ICPL_PerfMTest;9;3;0,073;1,86;61;57;PASS;true
Sampling_ICPL_PerfMTest;9;4;0,065;-1,921;46;48;PASS;false
Sampling_ICPL_PerfMTest;9;5;0,413;-0,83;55;56;PASS;false
Sampling_ICPL_PerfMTest;9;6;0,007;-2,906;62;67;PASS;true
Sampling_ICPL_PerfMTest;9;7;0,967;0,041;69;69;PASS;true
Sampling_ICPL_PerfMTest;9;8;0,228;1,232;86;84;PASS;false
Sampling_ICPL_PerfMTest;10;0;0;-9,645;23;30;PASS;true
Sampling_ICPL_PerfMTest;10;1;0;-4,774;29;34;PASS;false
Sampling_ICPL_PerfMTest;10;2;0;-5,059;31;34;PASS;true
Sampling_ICPL_PerfMTest;10;3;0,763;-0,304;45;45;PASS;true
Sampling_ICPL_PerfMTest;10;4;0,615;-0,508;48;49;PASS;false
Sampling_ICPL_PerfMTest;10;5;0,148;-1,486;54;56;PASS;true
Sampling_ICPL_PerfMTest;10;6;0,175;1,391;69;66;PASS;false
Sampling_ICPL_PerfMTest;10;7;0,71;-0,375;68;69;PASS;true
Sampling_ICPL_PerfMTest;10;8;0,282;-1,097;80;81;PASS;false
Sampling_ICPL_PerfMTest;11;0;0;-5,41;25;29;PASS;false
Sampling_ICPL_PerfMTest;11;1;0;-4,378;30;34;PASS;false
Sampling_ICPL_PerfMTest;11;2;0,214;-1,272;33;34;PASS;false
Sampling_ICPL_PerfMTest;11;3;0,575;0,567;47;46;PASS;false
Sampling_ICPL_PerfMTest;11;4;0,054;-2,007;45;47;PASS;false
Sampling_ICPL_PerfMTest;11;5;0,004;-3,126;54;59;PASS;true
Sampling_ICPL_PerfMTest;11;6;0,893;0,136;66;66;PASS;false
Sampling_ICPL_PerfMTest;11;7;0,273;1,117;74;72;PASS;false
Sampling_ICPL_PerfMTest;11;8;0,831;-0,215;82;82;PASS;true
Sampling_ICPL_PerfMTest;12;0;0;-8,236;24;29;PASS;false
Sampling_ICPL_PerfMTest;12;1;0,001;-3,792;30;32;PASS;false
Sampling_ICPL_PerfMTest;12;2;0,665;0,437;34;33;PASS;false
Sampling_ICPL_PerfMTest;12;3;0,742;0,332;47;46;PASS;true
Sampling_ICPL_PerfMTest;12;4;0;-4,658;45;51;PASS;false
Sampling_ICPL_PerfMTest;12;5;0,001;-3,566;52;57;PASS;true
Sampling_ICPL_PerfMTest;12;6;0,009;-2,801;62;68;PASS;true
Sampling_ICPL_PerfMTest;12;7;0,545;0,613;68;67;PASS;true
Sampling_ICPL_PerfMTest;12;8;0,308;1,039;83;81;PASS;false
Sampling_ICPL_PerfMTest;13;0;0;-5,225;23;29;PASS;true
Sampling_ICPL_PerfMTest;13;1;0,033;-2,235;30;31;PASS;false
Sampling_ICPL_PerfMTest;13;2;0;-4,309;31;34;PASS;false
Sampling_ICPL_PerfMTest;13;3;0;-5,702;44;50;PASS;false
Sampling_ICPL_PerfMTest;13;4;0,284;-1,092;45;47;PASS;false
Sampling_ICPL_PerfMTest;13;5;0,28;-1,102;55;57;PASS;false
Sampling_ICPL_PerfMTest;13;6;0,064;-1,924;64;67;PASS;true
Sampling_ICPL_PerfMTest;13;7;0,11;1,649;71;68;PASS;true
Sampling_ICPL_PerfMTest;13;8;0,884;0,147;86;85;PASS;true
Sampling_ICPL_PerfMTest;14;0;0;-7,162;25;29;PASS;false
Sampling_ICPL_PerfMTest;14;1;0;-3,982;29;31;PASS;false
Sampling_ICPL_PerfMTest;14;2;0;-5,399;32;36;PASS;false
Sampling_ICPL_PerfMTest;14;3;0,01;-2,748;45;48;PASS;true
Sampling_ICPL_PerfMTest;14;4;0;-7,086;47;61;PASS;false
Sampling_ICPL_PerfMTest;14;5;0,423;-0,812;55;56;PASS;false
Sampling_ICPL_PerfMTest;14;6;0;-4,339;62;69;PASS;true
Sampling_ICPL_PerfMTest;14;7;0,567;-0,579;69;70;PASS;true
Sampling_ICPL_PerfMTest;14;8;0,577;-0,565;81;82;PASS;false
Sampling_ICPL_PerfMTest;15;0;0;-8,946;23;28;PASS;false
Sampling_ICPL_PerfMTest;15;1;0;-4,279;30;34;PASS;false
Sampling_ICPL_PerfMTest;15;2;0,131;-1,553;32;33;PASS;false
Sampling_ICPL_PerfMTest;15;3;0,898;-0,129;46;46;PASS;false
Sampling_ICPL_PerfMTest;15;4;0,011;-2,72;47;49;PASS;true
Sampling_ICPL_PerfMTest;15;5;0,621;0,499;61;59;PASS;true
Sampling_ICPL_PerfMTest;15;6;0,023;-2,41;65;68;PASS;true
Sampling_ICPL_PerfMTest;15;7;0,028;-2,317;67;70;PASS;true
Sampling_ICPL_PerfMTest;15;8;0,626;-0,492;85;86;PASS;true
Sampling_ICPL_PerfMTest;16;0;0;-6,022;24;29;PASS;false
Sampling_ICPL_PerfMTest;16;1;0,021;-2,45;30;32;PASS;false
Sampling_ICPL_PerfMTest;16;2;0,234;-1,215;33;34;PASS;true
Sampling_ICPL_PerfMTest;16;3;0,523;0,647;47;47;PASS;true
Sampling_ICPL_PerfMTest;16;4;0,121;-1,597;49;52;PASS;true
Sampling_ICPL_PerfMTest;16;5;0,002;-3,317;54;58;PASS;false
Sampling_ICPL_PerfMTest;16;6;0,009;-2,809;62;66;PASS;true
Sampling_ICPL_PerfMTest;16;7;0,942;-0,073;70;70;PASS;true
Sampling_ICPL_PerfMTest;16;8;0,032;-2,252;77;83;PASS;true
Sampling_ICPL_PerfMTest;17;0;0,001;-3,683;24;28;PASS;true
Sampling_ICPL_PerfMTest;17;1;0;-4,894;29;32;PASS;true
Sampling_ICPL_PerfMTest;17;2;0,508;0,671;35;35;PASS;true
Sampling_ICPL_PerfMTest;17;3;0,157;-1,453;48;49;PASS;true
Sampling_ICPL_PerfMTest;17;4;0;-4,557;47;55;PASS;true
Sampling_ICPL_PerfMTest;17;5;0;-4,041;52;58;PASS;true
Sampling_ICPL_PerfMTest;17;6;0,003;-3,258;62;68;PASS;true
Sampling_ICPL_PerfMTest;17;7;0,359;-0,932;68;69;PASS;true
Sampling_ICPL_PerfMTest;17;8;0,06;-1,96;78;82;PASS;true
Sampling_ICPL_PerfMTest;18;0;0;-9,833;23;29;PASS;false
Sampling_ICPL_PerfMTest;18;1;0;-5,074;29;32;PASS;true
Sampling_ICPL_PerfMTest;18;2;0,039;-2,16;33;38;PASS;true
Sampling_ICPL_PerfMTest;18;3;0;-3,953;44;49;PASS;false
Sampling_ICPL_PerfMTest;18;4;0;-4,645;44;48;PASS;false
Sampling_ICPL_PerfMTest;18;5;0,022;-2,413;55;58;PASS;true
Sampling_ICPL_PerfMTest;18;6;0,006;-2,948;61;65;PASS;false
Sampling_ICPL_PerfMTest;18;7;0,069;1,888;74;70;PASS;false
Sampling_ICPL_PerfMTest;18;8;0,032;-2,26;80;85;PASS;true
Sampling_ICPL_PerfMTest;19;0;0;-6,662;24;29;PASS;false
Sampling_ICPL_PerfMTest;19;1;0;-4,82;28;32;PASS;false
Sampling_ICPL_PerfMTest;19;2;0,013;-2,634;34;36;PASS;true
Sampling_ICPL_PerfMTest;19;3;0,132;-1,551;47;50;PASS;true
Sampling_ICPL_PerfMTest;19;4;0,035;2,207;53;49;FAIL;false
Sampling_ICPL_PerfMTest;19;5;0,01;-2,743;56;64;PASS;true
Sampling_ICPL_PerfMTest;19;6;0,969;-0,039;68;68;PASS;false
Sampling_ICPL_PerfMTest;19;7;0,405;0,845;76;74;PASS;false
Sampling_ICPL_PerfMTest;19;8;0,796;-0,261;82;83;PASS;true
Sampling_ICPL_PerfMTest;20;0;0;-6,533;24;28;PASS;false
Sampling_ICPL_PerfMTest;20;1;0,006;-2,964;31;36;PASS;true
Sampling_ICPL_PerfMTest;20;2;0,068;-1,894;32;33;PASS;false
Sampling_ICPL_PerfMTest;20;3;0,143;1,504;48;46;PASS;false
Sampling_ICPL_PerfMTest;20;4;0,341;-0,967;47;48;PASS;false
Sampling_ICPL_PerfMTest;20;5;0,608;-0,518;54;55;PASS;true
Sampling_ICPL_PerfMTest;20;6;0,796;-0,26;64;65;PASS;true
Sampling_ICPL_PerfMTest;20;7;0,004;-3,168;69;83;PASS;true
Sampling_ICPL_PerfMTest;20;8;0,104;-1,679;80;83;PASS;true
Sampling_ICPL_PerfMTest;21;0;0;-4,414;27;32;PASS;true
Sampling_ICPL_PerfMTest;21;1;0,012;-2,668;30;32;PASS;false
Sampling_ICPL_PerfMTest;21;2;0,014;-2,613;32;33;PASS;false
Sampling_ICPL_PerfMTest;21;3;0,158;1,449;48;46;PASS;true
Sampling_ICPL_PerfMTest;21;4;0,001;-3,873;44;49;PASS;true
Sampling_ICPL_PerfMTest;21;5;0,847;-0,195;56;57;PASS;false
Sampling_ICPL_PerfMTest;21;6;0,025;-2,356;62;65;PASS;true
Sampling_ICPL_PerfMTest;21;7;0,273;1,118;70;68;PASS;false
Sampling_ICPL_PerfMTest;21;8;0,931;-0,088;81;81;PASS;true
Sampling_ICPL_PerfMTest;22;0;0;-4,933;24;28;PASS;false
Sampling_ICPL_PerfMTest;22;1;0;-5,325;28;32;PASS;true
Sampling_ICPL_PerfMTest;22;2;0,689;0,404;35;35;PASS;false
Sampling_ICPL_PerfMTest;22;3;0,156;-1,458;44;45;PASS;false
Sampling_ICPL_PerfMTest;22;4;0;-4,036;44;53;PASS;true
Sampling_ICPL_PerfMTest;22;5;0;-4,99;54;63;PASS;false
Sampling_ICPL_PerfMTest;22;6;0,602;-0,528;64;65;PASS;false
Sampling_ICPL_PerfMTest;22;7;0,604;0,524;70;69;PASS;true
Sampling_ICPL_PerfMTest;22;8;0;-4,187;79;91;PASS;true
Sampling_ICPL_PerfMTest;23;0;0;-6,292;28;36;PASS;false
Sampling_ICPL_PerfMTest;23;1;0,012;-2,687;29;31;PASS;false
Sampling_ICPL_PerfMTest;23;2;0,028;-2,321;32;34;PASS;true
Sampling_ICPL_PerfMTest;23;3;0,85;0,191;47;47;PASS;false
Sampling_ICPL_PerfMTest;23;4;0;-6,92;45;54;PASS;false
Sampling_ICPL_PerfMTest;23;5;0,001;-3,856;53;60;PASS;false
Sampling_ICPL_PerfMTest;23;6;0,001;-3,755;61;68;PASS;true
Sampling_ICPL_PerfMTest;23;7;0,382;0,887;70;68;PASS;false
Sampling_ICPL_PerfMTest;23;8;0,336;0,978;83;81;PASS;true
Sampling_ICPL_PerfMTest;24;0;0;-5,832;24;28;PASS;true
Sampling_ICPL_PerfMTest;24;1;0;-5,276;29;32;PASS;true
Sampling_ICPL_PerfMTest;24;2;0,038;-2,179;33;36;PASS;false
Sampling_ICPL_PerfMTest;24;3;0,872;0,163;47;46;PASS;true
Sampling_ICPL_PerfMTest;24;4;0,012;-2,692;46;50;PASS;true
Sampling_ICPL_PerfMTest;24;5;0,013;-2,633;53;56;PASS;true
Sampling_ICPL_PerfMTest;24;6;0;-5,363;61;67;PASS;true
Sampling_ICPL_PerfMTest;24;7;0,919;-0,103;71;71;PASS;true
Sampling_ICPL_PerfMTest;24;8;0,122;1,595;84;81;PASS;false
Sampling_ICPL_PerfMTest;25;0;0;-7,625;23;28;PASS;false
Sampling_ICPL_PerfMTest;25;1;0,046;-2,083;31;33;PASS;false
Sampling_ICPL_PerfMTest;25;2;0,02;-2,469;32;34;PASS;false
Sampling_ICPL_PerfMTest;25;3;0,746;-0,327;45;46;PASS;true
Sampling_ICPL_PerfMTest;25;4;0,002;-3,336;44;48;PASS;true
Sampling_ICPL_PerfMTest;25;5;0,001;-3,539;52;58;PASS;false
Sampling_ICPL_PerfMTest;25;6;0,013;-2,641;62;65;PASS;true
Sampling_ICPL_PerfMTest;25;7;0;-6,151;68;77;PASS;true
Sampling_ICPL_PerfMTest;25;8;0,157;-1,452;80;83;PASS;false
Sampling_ICPL_PerfMTest;26;0;0;-6,898;24;29;PASS;true
Sampling_ICPL_PerfMTest;26;1;0,003;-3,263;30;33;PASS;true
Sampling_ICPL_PerfMTest;26;2;0,094;-1,734;32;33;PASS;false
Sampling_ICPL_PerfMTest;26;3;0,47;0,731;47;46;PASS;true
Sampling_ICPL_PerfMTest;26;4;0,005;-3,006;45;49;PASS;true
Sampling_ICPL_PerfMTest;26;5;0,699;0,39;57;57;PASS;false
Sampling_ICPL_PerfMTest;26;6;0,004;-3,104;63;70;PASS;true
Sampling_ICPL_PerfMTest;26;7;0,974;0,033;72;72;PASS;false
Sampling_ICPL_PerfMTest;26;8;0,703;-0,385;81;81;PASS;true
Sampling_ICPL_PerfMTest;27;0;0;-4,662;27;33;PASS;true
Sampling_ICPL_PerfMTest;27;1;0;-4,671;30;32;PASS;false
Sampling_ICPL_PerfMTest;27;2;0,022;-2,424;33;35;PASS;false
Sampling_ICPL_PerfMTest;27;3;0,733;-0,344;46;46;PASS;false
Sampling_ICPL_PerfMTest;27;4;0,011;-2,733;45;49;PASS;true
Sampling_ICPL_PerfMTest;27;5;0;-6,734;53;60;PASS;true
Sampling_ICPL_PerfMTest;27;6;0,14;-1,516;64;66;PASS;false
Sampling_ICPL_PerfMTest;27;7;0,471;-0,73;68;69;PASS;true
Sampling_ICPL_PerfMTest;27;8;0,004;-3,111;78;83;PASS;true
Sampling_ICPL_PerfMTest;28;0;0;-6,159;24;29;PASS;false
Sampling_ICPL_PerfMTest;28;1;0,349;-0,951;33;34;PASS;false
Sampling_ICPL_PerfMTest;28;2;0,088;-1,768;32;33;PASS;false
Sampling_ICPL_PerfMTest;28;3;0;-4,215;44;51;PASS;true
Sampling_ICPL_PerfMTest;28;4;0,002;-3,333;44;49;PASS;false
Sampling_ICPL_PerfMTest;28;5;0,015;-2,582;55;61;PASS;true
Sampling_ICPL_PerfMTest;28;6;0,724;-0,357;65;66;PASS;false
Sampling_ICPL_PerfMTest;28;7;0,006;2,939;73;66;FAIL;true
Sampling_ICPL_PerfMTest;28;8;0,531;-0,634;81;83;PASS;true
Sampling_ICPL_PerfMTest;29;0;0;-8,572;23;28;PASS;false
Sampling_ICPL_PerfMTest;29;1;0,02;-2,452;30;32;PASS;false
Sampling_ICPL_PerfMTest;29;2;0;-4,75;32;36;PASS;true
Sampling_ICPL_PerfMTest;29;3;0,447;-0,771;45;46;PASS;true
Sampling_ICPL_PerfMTest;29;4;0;-4,263;45;49;PASS;true
Sampling_ICPL_PerfMTest;29;5;0,163;-1,432;54;56;PASS;false
Sampling_ICPL_PerfMTest;29;6;0;-5,958;62;74;PASS;true
Sampling_ICPL_PerfMTest;29;7;0,185;1,359;71;68;PASS;true
Sampling_ICPL_PerfMTest;29;8;0,268;1,13;83;81;PASS;true

percFlaky;0,556
percStatisticalSign;0,552