Operation;runNumber;tcNumber;pval;ttestval;avg. time fm;avg. time fmu;verdict;normality
ValidFMPerfMTest;0;0;0,423;0,812;0;0;PASS;true
ValidFMPerfMTest;0;1;0,662;-0,441;0;0;PASS;true
ValidFMPerfMTest;0;2;0,712;0,372;0;0;PASS;true
ValidFMPerfMTest;0;3;0,326;1;0;0;PASS;true
ValidFMPerfMTest;0;4;1;0;0;0;PASS;true
ValidFMPerfMTest;0;5;0,375;0,902;0;0;PASS;true
ValidFMPerfMTest;0;6;0,326;1;0;0;PASS;true
ValidFMPerfMTest;0;7;0,712;-0,372;0;0;PASS;true
ValidFMPerfMTest;0;8;0,536;-0,626;0;0;PASS;true
ValidFMPerfMTest;1;0;0,662;0,441;0;0;PASS;true
ValidFMPerfMTest;1;1;1;0;0;0;PASS;true
ValidFMPerfMTest;1;2;0,662;-0,441;0;0;PASS;true
ValidFMPerfMTest;1;3;0,712;0,372;0;0;PASS;true
ValidFMPerfMTest;1;4;0,489;-0,701;0;0;PASS;true
ValidFMPerfMTest;1;5;0,712;0,372;0;0;PASS;true
ValidFMPerfMTest;1;6;0,712;-0,372;0;0;PASS;true
ValidFMPerfMTest;1;7;1;0;0;0;PASS;true
ValidFMPerfMTest;1;8;0,662;-0,441;0;0;PASS;true
ValidFMPerfMTest;2;0;0,712;-0,372;0;0;PASS;true
ValidFMPerfMTest;2;1;0,712;-0,372;0;0;PASS;true
ValidFMPerfMTest;2;2;0,745;-0,328;0;0;PASS;true
ValidFMPerfMTest;2;3;0,326;1;0;0;PASS;true
ValidFMPerfMTest;2;4;1;0;0;0;PASS;true
ValidFMPerfMTest;2;5;0,662;0,441;0;0;PASS;true
ValidFMPerfMTest;2;6;1;0;0;0;PASS;true
ValidFMPerfMTest;2;7;0,712;0,372;0;0;PASS;true
ValidFMPerfMTest;2;8;0,662;-0,441;0;0;PASS;true
ValidFMPerfMTest;3;0;0,712;-0,372;0;0;PASS;true
ValidFMPerfMTest;3;1;1;0;0;0;PASS;true
ValidFMPerfMTest;3;2;1;0;0;0;PASS;true
ValidFMPerfMTest;3;3;0,662;0,441;0;0;PASS;true
ValidFMPerfMTest;3;4;0,573;0,571;0;0;PASS;true
ValidFMPerfMTest;3;5;0,745;0,328;0;0;PASS;true
ValidFMPerfMTest;3;6;0,375;0,902;0;0;PASS;true
ValidFMPerfMTest;3;7;0,326;1;0;0;PASS;true
ValidFMPerfMTest;3;8;1;0;0;0;PASS;true
ValidFMPerfMTest;4;0;0,326;-1;0;0;PASS;true
ValidFMPerfMTest;4;1;1;0;0;0;PASS;true
ValidFMPerfMTest;4;2;0,712;-0,372;0;0;PASS;true
ValidFMPerfMTest;4;3;1;0;0;0;PASS;true
ValidFMPerfMTest;4;4;0,769;0,297;0;0;PASS;true
ValidFMPerfMTest;4;5;0,423;0,812;0;0;PASS;true
ValidFMPerfMTest;4;6;1;0;0;0;PASS;true
ValidFMPerfMTest;4;7;0,662;-0,441;0;0;PASS;true
ValidFMPerfMTest;4;8;1;0;0;0;PASS;true
ValidFMPerfMTest;5;0;0,662;-0,441;0;0;PASS;true
ValidFMPerfMTest;5;1;0,712;0,372;0;0;PASS;true
ValidFMPerfMTest;5;2;1;0;0;0;PASS;true
ValidFMPerfMTest;5;3;0,712;0,372;0;0;PASS;true
ValidFMPerfMTest;5;4;0,326;1;0;0;PASS;true
ValidFMPerfMTest;5;5;0,712;0,372;0;0;PASS;true
ValidFMPerfMTest;5;6;1;0;0;0;PASS;true
ValidFMPerfMTest;5;7;0,662;0,441;0;0;PASS;true
ValidFMPerfMTest;5;8;0,573;0,571;0;0;PASS;true
ValidFMPerfMTest;6;0;0,712;0,372;0;0;PASS;true
ValidFMPerfMTest;6;1;0,489;-0,701;0;0;PASS;true
ValidFMPerfMTest;6;2;1;0;0;0;PASS;true
ValidFMPerfMTest;6;3;1;0;0;0;PASS;true
ValidFMPerfMTest;6;4;0,712;0,372;0;0;PASS;true
ValidFMPerfMTest;6;5;0,745;-0,328;0;0;PASS;true
ValidFMPerfMTest;6;6;1;0;0;0;PASS;true
ValidFMPerfMTest;6;7;1;0;0;0;PASS;true
ValidFMPerfMTest;6;8;1;0;0;0;PASS;true
ValidFMPerfMTest;7;0;1;0;0;0;PASS;true
ValidFMPerfMTest;7;1;0,712;0,372;0;0;PASS;true
ValidFMPerfMTest;7;2;0,573;0,571;0;0;PASS;true
ValidFMPerfMTest;7;3;0,712;0,372;0;0;PASS;true
ValidFMPerfMTest;7;4;0,083;1,795;0;0;PASS;true
ValidFMPerfMTest;7;5;0,662;-0,441;0;0;PASS;true
ValidFMPerfMTest;7;6;0,476;0,722;0;0;PASS;true
ValidFMPerfMTest;7;7;1;0;0;0;PASS;true
ValidFMPerfMTest;7;8;0,712;0,372;0;0;PASS;true
ValidFMPerfMTest;8;0;1;0;0;0;PASS;true
ValidFMPerfMTest;8;1;0,712;0,372;0;0;PASS;true
ValidFMPerfMTest;8;2;0,489;0,701;0;0;PASS;true
ValidFMPerfMTest;8;3;0,536;-0,626;0;0;PASS;true
ValidFMPerfMTest;8;4;0,712;-0,372;0;0;PASS;true
ValidFMPerfMTest;8;5;1;0;0;0;PASS;true
ValidFMPerfMTest;8;6;1;0;0;0;PASS;true
ValidFMPerfMTest;8;7;0,745;0,328;0;0;PASS;true
ValidFMPerfMTest;8;8;0,745;0,328;0;0;PASS;true
ValidFMPerfMTest;9;0;1;0;0;0;PASS;true
ValidFMPerfMTest;9;1;0,326;1;0;0;PASS;true
ValidFMPerfMTest;9;2;1;0;0;0;PASS;true
ValidFMPerfMTest;9;3;1;0;0;0;PASS;true
ValidFMPerfMTest;9;4;0,712;0,372;0;0;PASS;true
ValidFMPerfMTest;9;5;0,745;0,328;0;0;PASS;true
ValidFMPerfMTest;9;6;0,489;0,701;0;0;PASS;true
ValidFMPerfMTest;9;7;0,712;0,372;0;0;PASS;true
ValidFMPerfMTest;9;8;0,423;0,812;0;0;PASS;true
ValidFMPerfMTest;10;0;0,326;1;0;0;PASS;true
ValidFMPerfMTest;10;1;0,712;-0,372;0;0;PASS;true
ValidFMPerfMTest;10;2;0,662;-0,441;0;0;PASS;true
ValidFMPerfMTest;10;3;0,264;-1,14;0;0;PASS;true
ValidFMPerfMTest;10;4;1;0;0;0;PASS;true
ValidFMPerfMTest;10;5;0,662;0,441;0;0;PASS;true
ValidFMPerfMTest;10;6;0,573;0,571;0;0;PASS;true
ValidFMPerfMTest;10;7;0,662;0,441;0;0;PASS;true
ValidFMPerfMTest;10;8;0,423;0,812;0;0;PASS;true
ValidFMPerfMTest;11;0;0,573;0,571;0;0;PASS;true
ValidFMPerfMTest;11;1;1;0;0;0;PASS;true
ValidFMPerfMTest;11;2;0,745;-0,328;0;0;PASS;true
ValidFMPerfMTest;11;3;0,573;0,571;0;0;PASS;true
ValidFMPerfMTest;11;4;0,423;-0,812;0;0;PASS;true
ValidFMPerfMTest;11;5;0,662;-0,441;0;0;PASS;true
ValidFMPerfMTest;11;6;0,712;0,372;0;0;PASS;true
ValidFMPerfMTest;11;7;0,662;0,441;0;0;PASS;true
ValidFMPerfMTest;11;8;0,423;-0,812;0;0;PASS;true
ValidFMPerfMTest;12;0;0,161;1,439;0;0;PASS;true
ValidFMPerfMTest;12;1;0,662;0,441;0;0;PASS;true
ValidFMPerfMTest;12;2;0,255;1,161;0;0;PASS;true
ValidFMPerfMTest;12;3;0,662;0,441;0;0;PASS;true
ValidFMPerfMTest;12;4;0,712;0,372;0;0;PASS;true
ValidFMPerfMTest;12;5;1;0;0;0;PASS;true
ValidFMPerfMTest;12;6;1;0;0;0;PASS;true
ValidFMPerfMTest;12;7;0,326;-1;0;0;PASS;true
ValidFMPerfMTest;12;8;0,326;1;0;0;PASS;true
ValidFMPerfMTest;13;0;1;0;0;0;PASS;true
ValidFMPerfMTest;13;1;1;0;0;0;PASS;true
ValidFMPerfMTest;13;2;0,264;-1,14;0;0;PASS;true
ValidFMPerfMTest;13;3;0,712;-0,372;0;0;PASS;true
ValidFMPerfMTest;13;4;0,423;-0,812;0;0;PASS;true
ValidFMPerfMTest;13;5;0,662;0,441;0;0;PASS;true
ValidFMPerfMTest;13;6;0,662;0,441;0;0;PASS;true
ValidFMPerfMTest;13;7;0,712;-0,372;0;0;PASS;true
ValidFMPerfMTest;13;8;0,662;-0,441;0;0;PASS;true
ValidFMPerfMTest;14;0;?;?;0;0;FAIL;true
ValidFMPerfMTest;14;1;0,662;0,441;0;0;PASS;true
ValidFMPerfMTest;14;2;1;0;0;0;PASS;true
ValidFMPerfMTest;14;3;1;0;0;0;PASS;true
ValidFMPerfMTest;14;4;1;0;0;0;PASS;true
ValidFMPerfMTest;14;5;1;0;0;0;PASS;true
ValidFMPerfMTest;14;6;0,423;0,812;0;0;PASS;true
ValidFMPerfMTest;14;7;1;0;0;0;PASS;true
ValidFMPerfMTest;14;8;1;0;0;0;PASS;true
ValidFMPerfMTest;15;0;0,712;0,372;0;0;PASS;true
ValidFMPerfMTest;15;1;0,712;-0,372;0;0;PASS;true
ValidFMPerfMTest;15;2;1;0;0;0;PASS;true
ValidFMPerfMTest;15;3;0,712;-0,372;0;0;PASS;true
ValidFMPerfMTest;15;4;1;0;0;0;PASS;true
ValidFMPerfMTest;15;5;0,423;-0,812;0;0;PASS;true
ValidFMPerfMTest;15;6;0,662;-0,441;0;0;PASS;true
ValidFMPerfMTest;15;7;0,712;0,372;0;0;PASS;true
ValidFMPerfMTest;15;8;0,712;-0,372;0;0;PASS;true
ValidFMPerfMTest;16;0;1;0;0;0;PASS;true
ValidFMPerfMTest;16;1;0,712;-0,372;0;0;PASS;true
ValidFMPerfMTest;16;2;0,489;0,701;0;0;PASS;true
ValidFMPerfMTest;16;3;0,712;0,372;0;0;PASS;true
ValidFMPerfMTest;16;4;0,712;0,372;0;0;PASS;true
ValidFMPerfMTest;16;5;0,662;0,441;0;0;PASS;true
ValidFMPerfMTest;16;6;0,326;-1;0;0;PASS;true
ValidFMPerfMTest;16;7;1;0;0;0;PASS;true
ValidFMPerfMTest;16;8;0,745;-0,328;0;0;PASS;true
ValidFMPerfMTest;17;0;1;0;0;0;PASS;true
ValidFMPerfMTest;17;1;0,264;-1,14;0;0;PASS;true
ValidFMPerfMTest;17;2;0,423;-0,812;0;0;PASS;true
ValidFMPerfMTest;17;3;0,712;0,372;0;0;PASS;true
ValidFMPerfMTest;17;4;0,423;-0,812;0;0;PASS;true
ValidFMPerfMTest;17;5;1;0;0;0;PASS;true
ValidFMPerfMTest;17;6;1;0;0;0;PASS;true
ValidFMPerfMTest;17;7;0,536;-0,626;0;0;PASS;true
ValidFMPerfMTest;17;8;0,662;-0,441;0;0;PASS;true
ValidFMPerfMTest;18;0;1;0;0;0;PASS;true
ValidFMPerfMTest;18;1;1;0;0;0;PASS;true
ValidFMPerfMTest;18;2;0,161;-1,439;0;0;PASS;true
ValidFMPerfMTest;18;3;0,536;-0,626;0;0;PASS;true
ValidFMPerfMTest;18;4;0,745;0,328;0;0;PASS;true
ValidFMPerfMTest;18;5;0,326;1;0;0;PASS;true
ValidFMPerfMTest;18;6;1;0;0;0;PASS;true
ValidFMPerfMTest;18;7;1;0;0;0;PASS;true
ValidFMPerfMTest;18;8;0,712;0,372;0;0;PASS;true
ValidFMPerfMTest;19;0;0,662;-0,441;0;0;PASS;true
ValidFMPerfMTest;19;1;0,536;0,626;0;0;PASS;true
ValidFMPerfMTest;19;2;1;0;0;0;PASS;true
ValidFMPerfMTest;19;3;1;0;0;0;PASS;true
ValidFMPerfMTest;19;4;0,573;0,571;0;0;PASS;true
ValidFMPerfMTest;19;5;0,745;-0,328;0;0;PASS;true
ValidFMPerfMTest;19;6;0,712;-0,372;0;0;PASS;true
ValidFMPerfMTest;19;7;0,489;0,701;0;0;PASS;true
ValidFMPerfMTest;19;8;0,662;-0,441;0;0;PASS;true
ValidFMPerfMTest;20;0;0,573;0,571;0;0;PASS;true
ValidFMPerfMTest;20;1;0,662;0,441;0;0;PASS;true
ValidFMPerfMTest;20;2;0,662;0,441;0;0;PASS;true
ValidFMPerfMTest;20;3;0,489;0,701;0;0;PASS;true
ValidFMPerfMTest;20;4;1;0;0;0;PASS;true
ValidFMPerfMTest;20;5;1;0;0;0;PASS;true
ValidFMPerfMTest;20;6;1;0;0;0;PASS;true
ValidFMPerfMTest;20;7;0,712;-0,372;0;0;PASS;true
ValidFMPerfMTest;20;8;0,662;0,441;0;0;PASS;true
ValidFMPerfMTest;21;0;0,662;-0,441;0;0;PASS;true
ValidFMPerfMTest;21;1;0,712;0,372;0;0;PASS;true
ValidFMPerfMTest;21;2;0,573;0,571;0;0;PASS;true
ValidFMPerfMTest;21;3;1;0;0;0;PASS;true
ValidFMPerfMTest;21;4;0,662;0,441;0;0;PASS;true
ValidFMPerfMTest;21;5;1;0;0;0;PASS;true
ValidFMPerfMTest;21;6;0,489;0,701;0;0;PASS;true
ValidFMPerfMTest;21;7;0,712;0,372;0;0;PASS;true
ValidFMPerfMTest;21;8;1;0;0;0;PASS;true
ValidFMPerfMTest;22;0;0,573;0,571;0;0;PASS;true
ValidFMPerfMTest;22;1;0,745;-0,328;0;0;PASS;true
ValidFMPerfMTest;22;2;1;0;0;0;PASS;true
ValidFMPerfMTest;22;3;1;0;0;0;PASS;true
ValidFMPerfMTest;22;4;0,573;0,571;0;0;PASS;true
ValidFMPerfMTest;22;5;0,573;-0,571;0;0;PASS;true
ValidFMPerfMTest;22;6;0,662;0,441;0;0;PASS;true
ValidFMPerfMTest;22;7;0,423;-0,812;0;0;PASS;true
ValidFMPerfMTest;22;8;1;0;0;0;PASS;true
ValidFMPerfMTest;23;0;1;0;0;0;PASS;true
ValidFMPerfMTest;23;1;0,662;0,441;0;0;PASS;true
ValidFMPerfMTest;23;2;0,662;0,441;0;0;PASS;true
ValidFMPerfMTest;23;3;0,712;0,372;0;0;PASS;true
ValidFMPerfMTest;23;4;0,712;-0,372;0;0;PASS;true
ValidFMPerfMTest;23;5;1;0;0;0;PASS;true
ValidFMPerfMTest;23;6;0,423;0,812;0;0;PASS;true
ValidFMPerfMTest;23;7;0,712;0,372;0;0;PASS;true
ValidFMPerfMTest;23;8;0,662;0,441;0;0;PASS;true
ValidFMPerfMTest;24;0;0,573;-0,571;0;0;PASS;true
ValidFMPerfMTest;24;1;1;0;0;0;PASS;true
ValidFMPerfMTest;24;2;0,662;-0,441;0;0;PASS;true
ValidFMPerfMTest;24;3;1;0;0;0;PASS;true
ValidFMPerfMTest;24;4;0,161;1,439;0;0;PASS;true
ValidFMPerfMTest;24;5;1;0;0;0;PASS;true
ValidFMPerfMTest;24;6;1;0;0;0;PASS;true
ValidFMPerfMTest;24;7;0,712;-0,372;0;0;PASS;true
ValidFMPerfMTest;24;8;0,423;0,812;0;0;PASS;true
ValidFMPerfMTest;25;0;0,662;0,441;0;0;PASS;true
ValidFMPerfMTest;25;1;1;0;0;0;PASS;true
ValidFMPerfMTest;25;2;0,712;0,372;0;0;PASS;true
ValidFMPerfMTest;25;3;0,662;0,441;0;0;PASS;true
ValidFMPerfMTest;25;4;1;0;0;0;PASS;true
ValidFMPerfMTest;25;5;1;0;0;0;PASS;true
ValidFMPerfMTest;25;6;0,489;0,701;0;0;PASS;true
ValidFMPerfMTest;25;7;0,662;-0,441;0;0;PASS;true
ValidFMPerfMTest;25;8;0,662;0,441;0;0;PASS;true
ValidFMPerfMTest;26;0;1;0;0;0;PASS;true
ValidFMPerfMTest;26;1;1;0;0;0;PASS;true
ValidFMPerfMTest;26;2;0,712;0,372;0;0;PASS;true
ValidFMPerfMTest;26;3;1;0;0;0;PASS;true
ValidFMPerfMTest;26;4;0,712;-0,372;0;0;PASS;true
ValidFMPerfMTest;26;5;0,662;0,441;0;0;PASS;true
ValidFMPerfMTest;26;6;1;0;0;0;PASS;true
ValidFMPerfMTest;26;7;0,712;0,372;0;0;PASS;true
ValidFMPerfMTest;26;8;0,662;0,441;0;0;PASS;true
ValidFMPerfMTest;27;0;0,712;0,372;0;0;PASS;true
ValidFMPerfMTest;27;1;0,712;0,372;0;0;PASS;true
ValidFMPerfMTest;27;2;0,712;0,372;0;0;PASS;true
ValidFMPerfMTest;27;3;1;0;0;0;PASS;true
ValidFMPerfMTest;27;4;1;0;0;0;PASS;true
ValidFMPerfMTest;27;5;1;0;0;0;PASS;true
ValidFMPerfMTest;27;6;0,712;0,372;0;0;PASS;true
ValidFMPerfMTest;27;7;0,423;0,812;0;0;PASS;true
ValidFMPerfMTest;27;8;1;0;0;0;PASS;true
ValidFMPerfMTest;28;0;0,662;0,441;0;0;PASS;true
ValidFMPerfMTest;28;1;0,712;0,372;0;0;PASS;true
ValidFMPerfMTest;28;2;1;0;0;0;PASS;true
ValidFMPerfMTest;28;3;0,712;0,372;0;0;PASS;true
ValidFMPerfMTest;28;4;1;0;0;0;PASS;true
ValidFMPerfMTest;28;5;1;0;0;0;PASS;true
ValidFMPerfMTest;28;6;0,662;0,441;0;0;PASS;true
ValidFMPerfMTest;28;7;0,712;0,372;0;0;PASS;true
ValidFMPerfMTest;28;8;0,184;1,361;0;0;PASS;true
ValidFMPerfMTest;29;0;0,662;0,441;0;0;PASS;true
ValidFMPerfMTest;29;1;1;0;0;0;PASS;true
ValidFMPerfMTest;29;2;1;0;0;0;PASS;true
ValidFMPerfMTest;29;3;0,326;1;0;0;PASS;true
ValidFMPerfMTest;29;4;1;0;0;0;PASS;true
ValidFMPerfMTest;29;5;0,573;-0,571;0;0;PASS;true
ValidFMPerfMTest;29;6;0,712;0,372;0;0;PASS;true
ValidFMPerfMTest;29;7;1;0;0;0;PASS;true
ValidFMPerfMTest;29;8;0,489;0,701;0;0;PASS;true

percFlaky;0,111
percStatisticalSign;0